<svg xmlns="http://www.w3.org/2000/svg" xmlns:xlink="http://www.w3.org/1999/xlink" x="0px" y="0px" viewBox="0 0 120 120" style="enable-background:new 0 0 120 120;" xml:space="preserve" class="injected-svg js-svg-injector" data-parent="#icon8">
<style type="text/css">
	.icon-8-0{fill:none;stroke:#377DFF;}
	.icon-8-1{fill:none;stroke:#BDC5D1;}
	.icon-8-3{fill:#BDC5D1;}
	.icon-8-4{fill:#377DFF;}
	.icon-8-5{fill:none;stroke:#FFFFFF;}
</style>
<path class="icon-8-0 fill-none stroke-primary" stroke-width="3" stroke-linecap="round" stroke-linejoin="round" stroke-miterlimit="10" d="M104.7,93.2c-2,3-4.4,5.8-6.9,8.4"></path>
<path class="icon-8-1 fill-none stroke-gray-400" opacity=".5" stroke-width="3" stroke-linecap="round" stroke-linejoin="round" stroke-miterlimit="10" d="M41.5,6.8c2.1-0.6,4.3-1.1,6.5-1.5"></path>
<path class="icon-8-1 fill-none stroke-gray-400" opacity=".5" stroke-width="3" stroke-linecap="round" stroke-linejoin="round" stroke-miterlimit="10" d="M16.2,22.2c3.8-3.9,8.1-7.3,12.8-10.1"></path>
<path class="icon-8-1 fill-none stroke-gray-400" opacity=".5" stroke-width="3" stroke-linecap="round" stroke-linejoin="round" stroke-miterlimit="10" d="M8.3,32.7c0.8-1.4,1.7-2.8,2.6-4.1"></path>
<path class="icon-8-0 fill-none stroke-primary" stroke-width="3" stroke-linecap="round" stroke-linejoin="round" stroke-miterlimit="10" d="M57.4,118.4c-9.8,0-19.1-2.5-27.1-6.9"></path>
<path class="icon-8-0 fill-none stroke-primary" stroke-width="3" stroke-linecap="round" stroke-linejoin="round" stroke-miterlimit="10" d="M82.4,112.6c-1.9,0.9-3.8,1.7-5.8,2.5"></path>
<g>
	<line class="icon-8-1 fill-none stroke-gray-400" stroke-width="3" stroke-linecap="round" stroke-linejoin="round" stroke-miterlimit="10" x1="44.6" y1="46.9" x2="76.7" y2="46.9"></line>
	<line class="icon-8-1 fill-none stroke-gray-400" stroke-width="3" stroke-linecap="round" stroke-linejoin="round" stroke-miterlimit="10" x1="14.1" y1="46.9" x2="37.3" y2="46.9"></line>
	<line class="icon-8-1 fill-none stroke-gray-400" stroke-width="3" stroke-linecap="round" stroke-linejoin="round" stroke-miterlimit="10" x1="14.1" y1="76" x2="74.9" y2="76"></line>
	<line class="icon-8-1 fill-none stroke-gray-400" stroke-width="3" stroke-linecap="round" stroke-linejoin="round" stroke-miterlimit="10" x1="90.2" y1="76" x2="100.8" y2="76"></line>
</g>
<line class="icon-8-1 fill-none stroke-gray-400" stroke-width="3" stroke-linecap="round" stroke-linejoin="round" stroke-miterlimit="10" x1="57.4" y1="15.4" x2="57.4" y2="107.5"></line>
<path class="icon-8-1 fill-none stroke-gray-400" stroke-width="3" stroke-linecap="round" stroke-linejoin="round" stroke-miterlimit="10" d="M71,17.4c-4.3-1.3-8.8-2-13.6-2C32,15.4,11.3,36,11.3,61.4c0,25.5,20.6,46.1,46.1,46.1  c25.5,0,46.1-20.6,46.1-46.1c0-5.3-0.9-10.4-2.6-15.2"></path>
<path class="icon-8-1 fill-none stroke-gray-400" stroke-width="3" stroke-linecap="round" stroke-linejoin="round" stroke-miterlimit="10" d="M70.4,21.6c-1.3-1.4-2.8-2.6-4.3-3.5c-2.7-1.7-5.7-2.7-8.7-2.7c-14.3,0-25.9,20.6-25.9,46.1  c0,25.5,11.6,46.1,25.9,46.1c14.3,0,25.9-20.6,25.9-46.1c0-4.7-0.4-9.3-1.2-13.6"></path>
<path class="icon-8-3 fill-gray-400" opacity=".5" d="M97.2,9.3c-11.5,0-20.7,9.3-20.7,20.7c0,6.1,7.2,19.7,19,36c0.4,0.6,1,0.8,1.7,0.8c0.7,0,1.3-0.3,1.7-0.8  c11.8-16.1,19-29.7,19-36C117.9,18.6,108.6,9.3,97.2,9.3z"></path>
<path class="icon-8-4 fill-primary" d="M91.1,1.6c-11.5,0-20.7,9.3-20.7,20.7c0,6.1,7.2,19.7,19,36c0.4,0.6,1,0.8,1.7,0.8c0.7,0,1.3-0.3,1.7-0.8  c11.8-16.1,19-29.7,19-36C111.7,11,102.4,1.6,91.1,1.6z"></path>
<circle class="icon-8-5 fill-none stroke-white" stroke-width="3" stroke-linecap="round" stroke-linejoin="round" stroke-miterlimit="10" cx="91.1" cy="22.4" r="9.6"></circle>
</svg>